^C:\USERS\TONI\DOCUMENTS\VISUAL STUDIO 2015\PROJECTS\C5\C5\MAIN.CPP
/c /ZI /nologo /W3 /WX- /Od /Oy- /D WIN32 /D _DEBUG /D _CONSOLE /D _UNICODE /D UNICODE /Gm /EHsc /RTC1 /MDd /GS /fp:precise /Zc:wchar_t /Zc:forScope /Zc:inline /Fo"DEBUG\\" /Fd"DEBUG\VC140.PDB" /Gd /TP /analyze- C:\USERS\TONI\DOCUMENTS\VISUAL STUDIO 2015\PROJECTS\C5\C5\MAIN.CPP
^C:\USERS\TONI\DOCUMENTS\VISUAL STUDIO 2015\PROJECTS\C5\C5\CIFRENUMAR.CPP
/c /ZI /nologo /W3 /WX- /Od /Oy- /D WIN32 /D _DEBUG /D _CONSOLE /D _UNICODE /D UNICODE /Gm /EHsc /RTC1 /MDd /GS /fp:precise /Zc:wchar_t /Zc:forScope /Zc:inline /Fo"DEBUG\\" /Fd"DEBUG\VC140.PDB" /Gd /TP /analyze- C:\USERS\TONI\DOCUMENTS\VISUAL STUDIO 2015\PROJECTS\C5\C5\CIFRENUMAR.CPP
^C:\USERS\TONI\DOCUMENTS\VISUAL STUDIO 2015\PROJECTS\C5\C5\TESTS.CPP
/c /ZI /nologo /W3 /WX- /Od /Oy- /D WIN32 /D _DEBUG /D _CONSOLE /D _UNICODE /D UNICODE /Gm /EHsc /RTC1 /MDd /GS /fp:precise /Zc:wchar_t /Zc:forScope /Zc:inline /Fo"DEBUG\\" /Fd"DEBUG\VC140.PDB" /Gd /TP /analyze- C:\USERS\TONI\DOCUMENTS\VISUAL STUDIO 2015\PROJECTS\C5\C5\TESTS.CPP
^C:\USERS\TONI\DOCUMENTS\VISUAL STUDIO 2015\PROJECTS\C5\C5\DIVIZORI.CPP
/c /ZI /nologo /W3 /WX- /Od /Oy- /D WIN32 /D _DEBUG /D _CONSOLE /D _UNICODE /D UNICODE /Gm /EHsc /RTC1 /MDd /GS /fp:precise /Zc:wchar_t /Zc:forScope /Zc:inline /Fo"DEBUG\\" /Fd"DEBUG\VC140.PDB" /Gd /TP /analyze- C:\USERS\TONI\DOCUMENTS\VISUAL STUDIO 2015\PROJECTS\C5\C5\DIVIZORI.CPP
